{
  "project_info": {
    "project_number": "627999203786",
    "firebase_url": "https://ns6chat.firebaseio.com",
    "project_id": "ns6chat",
    "storage_bucket": "ns6chat.appspot.com"
  },
  "client": [
    {
      "client_info": {
        "mobilesdk_app_id": "1:627999203786:android:6a4aba79559cdd13",
        "android_client_info": {
          "package_name": "us.skyguardian.driverns6"
        }
      },
      "oauth_client": [
        {
          "client_id": "627999203786-aj7pmkfba5d6idqbi4654io4m04r2a4o.apps.googleusercontent.com",
          "client_type": 3
        }
      ],
      "api_key": [
        {
          "current_key": "AIzaSyA_WpWHH_7ie7B6hzT8JACbbu9p7iz0IXg"
        }
      ],
      "services": {
        "appinvite_service": {
          "other_platform_oauth_client": [
            {
              "client_id": "627999203786-aj7pmkfba5d6idqbi4654io4m04r2a4o.apps.googleusercontent.com",
              "client_type": 3
            }
          ]
        }
      }
    }
  ],
  "configuration_version": "1"
}